{
  "game": {
    "roomId": "k8QpZ",
    "turn": {
      "holderPlayerId": "20",
      "type": "DRAW",
      "playerId": "20"
    },
    "players": [
      {
        "playerId": "20",
        "wins": "10",
        "loses": "15",
        "deck": {
          "cards": [
            {
              "suit": "♦",
              "value": "5"
            },
            {
              "suit": "♠",
              "value": "7"
            },
            {
              "suit": "♣",
              "value": "8"
            },
            {
              "suit": "♦",
              "value": "A"
            },
            {
              "suit": "♥",
              "value": "J"
            },
            {
              "suit": "♠",
              "value": "8"
            },
            {
              "suit": "♥",
              "value": "K"
            },
            {
              "suit": "♠",
              "value": "3"
            },
            {
              "suit": "♦",
              "value": "9"
            }
          ]
        },
        "melds": []
      }
    ],
    "createdAt": "Mon May 03 2021",
    "deck": {
      "cards": [
        {
          "suit": "♣",
          "value": "K"
        },
        {
          "suit": "♦",
          "value": "J"
        },
        {
          "suit": "♣",
          "value": "4"
        },
        {
          "suit": "♣",
          "value": "5"
        },
        {
          "suit": "♣",
          "value": "3"
        },
        {
          "suit": "♦",
          "value": "7"
        },
        {
          "suit": "♣",
          "value": "A"
        },
        {
          "suit": "♦",
          "value": "Q"
        },
        {
          "suit": "♥",
          "value": "8"
        },
        {
          "suit": "♣",
          "value": "9"
        },
        {
          "suit": "♥",
          "value": "5"
        },
        {
          "suit": "♣",
          "value": "Q"
        },
        {
          "suit": "♠",
          "value": "K"
        },
        {
          "suit": "♠",
          "value": "10"
        },
        {
          "suit": "♠",
          "value": "Q"
        },
        {
          "suit": "♦",
          "value": "6"
        },
        {
          "suit": "♥",
          "value": "3"
        },
        {
          "suit": "♠",
          "value": "2"
        },
        {
          "suit": "♠",
          "value": "4"
        },
        {
          "suit": "♥",
          "value": "6"
        },
        {
          "suit": "♦",
          "value": "4"
        },
        {
          "suit": "♠",
          "value": "6"
        },
        {
          "suit": "♦",
          "value": "2"
        },
        {
          "suit": "♣",
          "value": "6"
        },
        {
          "suit": "♠",
          "value": "9"
        },
        {
          "suit": "♥",
          "value": "A"
        },
        {
          "suit": "♣",
          "value": "7"
        },
        {
          "suit": "♥",
          "value": "2"
        },
        {
          "suit": "♣",
          "value": "10"
        },
        {
          "suit": "♥",
          "value": "4"
        },
        {
          "suit": "♥",
          "value": "Q"
        },
        {
          "suit": "♣",
          "value": "J"
        },
        {
          "suit": "♠",
          "value": "A"
        },
        {
          "suit": "♣",
          "value": "2"
        },
        {
          "suit": "♥",
          "value": "9"
        },
        {
          "suit": "♠",
          "value": "5"
        },
        {
          "suit": "♥",
          "value": "10"
        },
        {
          "suit": "♦",
          "value": "3"
        },
        {
          "suit": "♦",
          "value": "K"
        },
        {
          "suit": "♦",
          "value": "8"
        },
        {
          "suit": "♦",
          "value": "10"
        },
        {
          "suit": "♥",
          "value": "7"
        },
        {
          "suit": "♠",
          "value": "J"
        },
        {
          "suit": "♦",
          "value": "5"
        },
        {
          "suit": "♠",
          "value": "7"
        },
        {
          "suit": "♣",
          "value": "8"
        },
        {
          "suit": "♦",
          "value": "A"
        },
        {
          "suit": "♥",
          "value": "J"
        },
        {
          "suit": "♠",
          "value": "8"
        },
        {
          "suit": "♥",
          "value": "K"
        },
        {
          "suit": "♠",
          "value": "3"
        },
        {
          "suit": "♦",
          "value": "9"
        }
      ]
    },
    "waste": null
  },
  "meld": null,
  "playerId": null
}
